<?xml version="1.0" standalone="no"?>
<!DOCTYPE svg PUBLIC "-//W3C//DTD SVG 1.1//EN" "http://www.w3.org/Graphics/SVG/1.1/DTD/svg11.dtd" >
<svg xmlns="http://www.w3.org/2000/svg" xmlns:xlink="http://www.w3.org/1999/xlink" version="1.1" viewBox="-10 0 265 256">
  <g transform="matrix(1 0 0 -1 0 220)">
   <path fill="currentColor"
d="M116 203v-48q-4 -22 -32 -36v-8h-4v8q-1 0 -6 -4q-2 -6 -2 -12h-20v66l4 4l16 6v15l-6 5q-21 -28 -46 -32v-4h12l8 4h4v-64h-32v-8h4l8 4h20v-128h2l6 6v122h32v12q4 0 8 2l24 18v-44q-4 -22 -32 -36v-8h6q16 10 24 20h2v-44q-4 -22 -32 -36v-8h6q16 10 24 20q6 18 6 20
h8l14 -28q0 -1 10 -6q1 -2 2 -2q0 2 6 5v7q-4 0 -8 2q-18 16 -20 25l20 18v6l-6 5q-2 0 -12 -20q-5 -4 -6 -4v4l-4 8v22q0 1 4 4v2l-8 4h-4q0 2 2 4q2 6 2 12h8l14 -28q0 -1 10 -6q1 -2 2 -2q0 2 6 5v7q-4 0 -8 2q-18 16 -20 25l20 18v6l-6 5q-2 0 -12 -20q-5 -4 -6 -4v4
l-4 8v22l4 3v2l-8 5h-4q0 2 2 4q2 6 2 12h8l14 -28q0 -1 10 -6q1 -2 2 -2q0 1 6 5v7q-4 0 -8 2q-18 15 -20 24l20 19v6l-6 5q-2 0 -12 -20q-5 -4 -6 -4v4l-4 8v22l4 3v2l-2 1l-4 4h-6v0zM168 203v-208l4 -8q2 -4 12 -8h60v8h-60v2l-8 14v200h-8v0zM188 177v-16l14 -14h20
l14 14v16l-14 14h-18q-4 0 -4 -2q-10 -11 -12 -11v-1v0zM204 187h18l10 -10v-16l-10 -10h-20l-10 10v16l10 10h2v0zM100 179v-4q-4 -10 -4 -12h-8v-12h7l9 10v18h-4v0zM188 109v-16l14 -14h20l14 14v16l-14 14h-18q-4 0 -4 -2q-10 -11 -12 -11v-1v0zM204 119h18l10 -10v-16
l-10 -10h-20l-10 10v16l10 10h2v0zM100 111v-4q-4 -10 -4 -12h-8v-12h7l9 10v18h-4v0zM188 37v-16l14 -14h20l14 14v16l-14 14h-18q-4 0 -4 -2q-10 -10 -12 -11v-1v0zM204 47h18l10 -10v-16l-10 -10h-20l-10 10v16l10 10h2v0zM100 43v-4q-4 -10 -4 -12h-8v-12h7l9 10v18h-4
v0z" />
  </g>

</svg>
